[gd_scene load_steps=4 format=2]

[ext_resource path="res://assets/images/player.png" type="Texture" id=1]
[ext_resource path="res://Paddel/Paddel.gd" type="Script" id=2]

[sub_resource type="RectangleShape2D" id=2]

[node name="Paddel" type="Area2D" groups=["Collidable", "Paddel"]]
script = ExtResource( 2 )

[node name="Visual" type="Sprite" parent="."]
texture = ExtResource( 1 )

[node name="Shape" type="CollisionShape2D" parent="."]
scale = Vector2( 1.5, 4.5 )
shape = SubResource( 2 )
